<?xml version="1.0" encoding="UTF-8" standalone="no"?>
<svg width="229px" height="43px" viewBox="0 0 229 43" version="1.1" xmlns="http://www.w3.org/2000/svg" xmlns:xlink="http://www.w3.org/1999/xlink">
    <!-- Generator: Sketch 3.6 (26304) - http://www.bohemiancoding.com/sketch -->
    <title>Logo</title>
    <desc>Created with Sketch.</desc>
    <defs></defs>
    <g id="Page-1" stroke="none" stroke-width="1" fill="none" fill-rule="evenodd">
        <g id="Desktop-HD" transform="translate(-94.000000, -20.000000)">
            <g id="#3" transform="translate(60.000000, 0.000000)">
                <g id="Logo" transform="translate(34.000000, 20.000000)">
                    <g id="Group">
                        <g transform="translate(0.311984, 0.074767)" id="Shape" fill="#55595D">
                            <path d="M37.9008364,3.1392205 C35.1797939,1.57381832 32.0880831,0.749036526 28.9374023,0.749036526 C21.0438518,0.749036526 14.1359421,5.89129852 11.8445379,13.3732476 C5.56844917,13.5079059 0.505456809,18.6417517 0.505456809,24.9286089 C0.505456809,28.7579529 2.35879844,32.233819 5.46735781,34.3967672 L9.3341024,34.3967672 C9.08979827,33.3784142 8.92973695,32.3348127 8.92973695,31.2407144 C8.92973695,24.3647274 14.1443664,18.5828388 20.8332448,17.699144 C23.7985914,10.0152075 31.1192908,4.9571069 39.4677525,4.9571069 C39.8552694,4.9571069 40.2259377,4.99077146 40.6050303,5.00760374 C39.6193895,4.22490265 38.2041104,3.32437559 37.9008364,3.1392205"></path>
                        </g>
                        <g transform="translate(11.046909, 6.868322)" id="Shape" fill="#B7172F">
                            <path d="M41.3691829,36.0667614 L11.8842907,36.0667614 C5.49540456,36.0667614 0.299180075,30.8494914 0.299180075,24.4754667 C0.299180075,18.1807989 5.36378852,13.0313006 11.6390326,12.8998117 C13.9333263,5.42058545 20.841719,0.265294736 28.7346228,0.265294736 C38.6035066,0.265294736 46.6326649,8.28379916 46.6326649,18.1448856 C46.6326649,18.3400915 46.626287,18.5260296 46.6170101,18.7171808 C49.2406339,20.4659249 50.844958,23.4420916 50.844958,26.5810265 C50.844958,31.7948211 46.5932381,36.0667614 41.3691829,36.0667614 L41.3691829,36.0667614 Z M28.0388552,26.7802872 L26.4490262,26.7802872 L28.2035202,20.2359642 L19.9783873,20.2359642 L18.2238933,26.7802872 L16.3412621,26.7802872 C16.01831,26.7802872 15.3816826,27.0096686 15.3816826,27.332888 L15.3816826,29.1586719 C15.3816826,30.4081058 16.772638,31.4548036 18.0232803,31.4548036 L26.3574168,31.4548036 C27.6074792,31.4548036 28.4829868,30.4081058 28.4829868,29.1586719 L28.4829868,27.332888 C28.4829868,27.0096686 28.3623871,26.7802872 28.0388552,26.7802872 L28.0388552,26.7802872 Z M19.8143021,10.8869314 C18.2221539,10.8869314 17.2532975,11.6828156 17.2532975,13.2728462 L17.2532975,15.6836687 C17.2532975,17.2736994 18.2221539,18.3661576 19.8143021,18.3661576 L32.7178924,18.3661576 C33.0414243,18.3661576 33.162024,18.3070745 33.162024,17.9844344 L33.162024,17.4312543 L33.7412506,17.4312543 C35.4087736,17.4312543 36.7127581,16.4963511 37.0049805,15.5614478 L41.491522,15.5614478 C41.8144742,15.5614478 42.0759668,14.9497638 42.0759668,14.6265445 C42.0759668,14.3033251 41.8144742,13.6916412 41.491522,13.6916412 L37.0142574,13.6916412 C36.7632013,12.7567379 35.6105463,11.8218346 34.0340528,11.8218346 L33.162024,11.8218346 L33.162024,10.9726598 C33.162024,10.6488612 33.0414243,10.8869314 32.7178924,10.8869314 L19.8143021,10.8869314 L19.8143021,10.8869314 Z"></path>
                        </g>
                        <g transform="translate(65.569044, 7.937030)">
                            <rect id="Rectangle-path" fill="#B7172F" x="0.744045628" y="0.917038972" width="6.68427948" height="26.0437048"></rect>
                            <path d="M11.9401127,26.9597338 L24.0389416,26.9597338 C32.1931155,26.9597338 36.3712957,21.0494783 36.3712957,13.9383864 C36.3712957,6.8596131 32.1931155,0.917038972 24.0389416,0.917038972 L11.9401127,0.917038972 L11.9401127,26.9597338 L11.9401127,26.9597338 Z M23.5375195,7.3938792 C27.5145243,7.3938792 29.6202947,10.0318812 29.6202947,13.9383864 C29.6202947,17.8448916 27.5145243,20.5162221 23.5375195,20.5162221 L18.6243921,20.5162221 L18.6243921,7.3938792 L23.5375195,7.3938792 L23.5375195,7.3938792 Z" id="Shape" fill="#B7172F"></path>
                            <path d="M46.7313223,0.917038972 L36.1701203,26.9597338 L43.4559041,26.9597338 L44.8934487,23.1532141 L55.1533931,23.1532141 L56.5909378,26.9597338 L63.8767216,26.9597338 L53.3488803,0.917038972 L46.7313223,0.917038972 L46.7313223,0.917038972 Z M52.880819,17.1096445 L47.1660229,17.1096445 L50.0401013,9.46428657 L52.880819,17.1096445 L52.880819,17.1096445 Z" id="Shape" fill="#B7172F"></path>
                            <path d="M66.3828209,26.9597338 L85.5328975,26.9597338 L85.5328975,20.5162221 L73.0337396,20.5162221 L73.0337396,0.917038972 L66.3828209,0.917038972 L66.3828209,26.9597338 L66.3828209,26.9597338 Z" id="Shape" fill="#55595D"></path>
                            <path d="M97.0302221,0.917038972 L86.4690201,26.9597338 L93.7548038,26.9597338 L95.1923485,23.1532141 L105.452293,23.1532141 L106.889838,26.9597338 L114.175621,26.9597338 L103.64778,0.917038972 L97.0302221,0.917038972 L97.0302221,0.917038972 Z M103.179719,17.1096445 L97.4649227,17.1096445 L100.339001,9.46428657 L103.179719,17.1096445 L103.179719,17.1096445 Z" id="Shape" fill="#55595D"></path>
                            <path d="M116.681721,26.9597338 L130.785227,26.9597338 C136.066333,26.9597338 139.274019,23.9217897 139.274019,19.6143325 C139.274019,16.5753784 137.569589,14.572638 134.930046,13.5707628 C136.868002,12.5022307 138.104371,10.7327898 138.104371,8.09478784 C138.104371,3.95498305 135.263654,0.917038972 129.64894,0.917038972 L116.681721,0.917038972 L116.681721,26.9597338 L116.681721,26.9597338 Z M130.05028,16.3420789 C131.854792,16.3420789 132.523018,17.2439685 132.523018,18.5791288 C132.523018,19.9476175 131.854792,20.9161642 130.05028,20.9161642 L123.366,20.9161642 L123.366,16.3420789 L130.05028,16.3420789 L130.05028,16.3420789 Z M129.2476,6.99292714 C130.651784,6.99292714 131.35337,7.82815977 131.35337,9.06333451 C131.35337,10.2985092 130.685145,11.1337419 128.880632,11.1337419 L123.366,11.1337419 L123.366,6.99292714 L129.2476,6.99292714 L129.2476,6.99292714 Z" id="Shape" fill="#55595D"></path>
                            <path d="M141.613315,19.1467234 L141.613315,19.4476899 C141.613315,24.5560414 146.42636,27.4606714 152.675939,27.4606714 C158.625271,27.4606714 163.036976,24.7893409 163.036976,19.714318 C163.036976,14.0050434 156.88748,11.867979 153.277443,10.5994758 C150.16984,9.53094359 148.966831,8.99667749 148.966831,7.96147381 C148.966831,7.09392262 149.868582,6.19203297 152.141156,6.19203297 C154.848431,6.19203297 156.151522,7.69484573 156.151522,8.96334898 L156.151522,9.19664854 L162.668997,9.19664854 L162.668997,8.83003495 C162.668997,3.65401652 158.090488,0.416101384 152.007713,0.416101384 C146.058381,0.416101384 141.81449,3.52070248 141.81449,8.4957399 C141.81449,13.8717294 147.2624,15.8744698 151.406209,17.2439685 C154.548184,18.3125007 155.851275,18.9800808 155.851275,20.0819415 C155.851275,20.8495072 155.048595,21.6847398 152.542496,21.6847398 C149.501614,21.6847398 148.130791,20.3152411 148.130791,19.3133659 L148.130791,19.1467234 L141.613315,19.1467234 L141.613315,19.1467234 Z" id="Shape" fill="#55595D"></path>
                        </g>
                    </g>
                </g>
            </g>
        </g>
    </g>
</svg>
